<svg
        xmlns="http://www.w3.org/2000/svg"
        xmlns:xlink="http://www.w3.org/1999/xlink"
        width="27px" height="41px">
    <path fill-rule="evenodd"  fill="rgb(235, 235, 235)"
          d="M13.943,0.980 C6.793,0.980 0.976,6.796 0.976,13.945 C0.976,16.824 2.815,21.518 6.597,28.296 C9.273,33.090 11.905,37.087 12.015,37.254 L13.943,40.176 L15.871,37.255 C15.981,37.087 18.613,33.090 21.289,28.296 C25.071,21.518 26.910,16.825 26.910,13.945 C26.910,6.796 21.093,0.980 13.943,0.980 ZM13.943,20.578 C10.231,20.578 7.221,17.569 7.221,13.857 C7.221,10.146 10.231,7.137 13.943,7.137 C17.655,7.137 20.665,10.146 20.665,13.857 C20.665,17.569 17.655,20.578 13.943,20.578 Z"/>
</svg>