<svg
        xmlns="http://www.w3.org/2000/svg"
        xmlns:xlink="http://www.w3.org/1999/xlink"
        width="72px" height="78px">
    <path fill-rule="evenodd"  stroke-width="4px" stroke="rgb(255, 255, 255)" fill-opacity="0.102" fill="rgb(255, 255, 255)"
          d="M28.533,69.730 C23.556,66.750 18.529,63.855 13.451,61.048 C8.373,58.240 5.884,53.943 5.985,48.154 C6.085,42.366 6.085,36.578 5.985,30.789 C5.884,25.001 8.373,20.703 13.451,17.896 C18.529,15.088 23.556,12.194 28.533,9.214 C33.511,6.232 38.488,6.232 43.465,9.214 C48.443,12.194 53.470,15.088 58.548,17.896 C63.626,20.703 66.115,25.001 66.014,30.789 C65.914,36.578 65.914,42.366 66.014,48.154 C66.115,53.943 63.626,58.240 58.548,61.048 C53.470,63.855 48.443,66.750 43.465,69.730 C38.488,72.711 33.511,72.711 28.533,69.730 Z"/>
</svg>