<svg
        xmlns="http://www.w3.org/2000/svg"
        xmlns:xlink="http://www.w3.org/1999/xlink"
        width="975px" height="3px">
    <path fill-rule="evenodd"  opacity="0.25" fill="rgb(133, 99, 99)"
          d="M0.500,1.000 L974.500,1.000 C974.776,1.000 975.000,1.224 975.000,1.500 C975.000,1.776 974.776,2.000 974.500,2.000 L0.500,2.000 C0.224,2.000 0.000,1.776 0.000,1.500 C0.000,1.224 0.224,1.000 0.500,1.000 Z"/>
    <path fill-rule="evenodd"   opacity="0.55" fill="rgb(112, 82, 82)"
          d="M456.969,0.000 L519.031,0.000 C519.860,0.000 520.531,0.672 520.531,1.500 C520.531,2.328 519.860,3.000 519.031,3.000 L456.969,3.000 C456.140,3.000 455.469,2.328 455.469,1.500 C455.469,0.672 456.140,0.000 456.969,0.000 Z"/>
</svg>