<svg
        xmlns="http://www.w3.org/2000/svg"
        xmlns:xlink="http://www.w3.org/1999/xlink"
        width="50px" height="54px">
    <path fill-rule="evenodd"  fill="rgb(112, 82, 82)"
          d="M18.895,52.131 C14.763,49.655 10.588,47.250 6.372,44.918 C2.156,42.585 0.090,39.015 0.173,34.208 C0.257,29.399 0.257,24.590 0.173,19.781 C0.090,14.973 2.156,11.402 6.372,9.070 C10.588,6.738 14.763,4.333 18.895,1.857 C23.028,-0.620 27.160,-0.620 31.293,1.857 C35.426,4.333 39.600,6.738 43.816,9.070 C48.032,11.402 50.098,14.973 50.015,19.781 C49.932,24.590 49.932,29.399 50.015,34.208 C50.098,39.015 48.032,42.585 43.816,44.918 C39.600,47.250 35.426,49.655 31.293,52.131 C27.160,54.608 23.028,54.608 18.895,52.131 Z"/>
    <path fill-rule="evenodd"  fill="rgb(235, 235, 235)"
          d="M39.637,26.675 C39.637,19.261 33.387,13.249 25.678,13.249 C24.864,13.249 24.069,13.318 23.291,13.443 C22.043,12.690 20.569,12.249 18.986,12.249 C14.514,12.249 10.891,15.736 10.891,20.037 C10.891,21.474 11.297,22.820 12.002,23.977 C11.817,24.846 11.720,25.751 11.720,26.675 C11.720,34.093 17.969,40.103 25.678,40.103 C26.551,40.103 27.406,40.025 28.232,39.877 C29.375,40.466 30.677,40.800 32.061,40.800 C36.532,40.800 40.157,37.315 40.157,33.014 C40.157,31.772 39.853,30.599 39.316,29.556 C39.527,28.628 39.637,27.663 39.637,26.675 M32.838,33.092 C32.192,33.971 31.237,34.666 30.001,35.161 C28.778,35.649 27.311,35.899 25.642,35.899 C23.635,35.899 21.955,35.560 20.643,34.892 C19.704,34.404 18.929,33.745 18.342,32.929 C17.750,32.107 17.450,31.290 17.450,30.504 C17.450,30.011 17.647,29.584 18.033,29.238 C18.415,28.889 18.905,28.715 19.490,28.715 C19.969,28.715 20.384,28.851 20.719,29.125 C21.040,29.389 21.316,29.776 21.536,30.274 C21.786,30.822 22.054,31.282 22.338,31.642 C22.613,31.992 23.007,32.285 23.510,32.514 C24.016,32.744 24.698,32.862 25.537,32.862 C26.691,32.862 27.637,32.623 28.349,32.158 C29.045,31.702 29.380,31.152 29.380,30.480 C29.380,29.952 29.206,29.537 28.843,29.208 C28.463,28.865 27.960,28.601 27.353,28.417 C26.719,28.228 25.858,28.020 24.793,27.804 C23.343,27.510 22.113,27.156 21.135,26.756 C20.134,26.344 19.327,25.776 18.737,25.067 C18.137,24.344 17.832,23.440 17.832,22.376 C17.832,21.360 18.152,20.446 18.781,19.658 C19.403,18.876 20.317,18.266 21.490,17.850 C22.650,17.436 24.028,17.228 25.588,17.228 C26.833,17.228 27.927,17.368 28.843,17.641 C29.762,17.913 30.538,18.289 31.149,18.746 C31.763,19.209 32.222,19.700 32.505,20.213 C32.795,20.730 32.943,21.246 32.943,21.742 C32.943,22.226 32.749,22.661 32.370,23.041 C31.987,23.422 31.504,23.617 30.936,23.617 C30.419,23.617 30.014,23.495 29.735,23.257 C29.474,23.034 29.201,22.686 28.902,22.190 C28.552,21.554 28.130,21.052 27.649,20.699 C27.177,20.353 26.395,20.183 25.317,20.183 C24.318,20.183 23.501,20.373 22.899,20.757 C22.317,21.123 22.033,21.544 22.033,22.043 C22.033,22.350 22.125,22.604 22.313,22.824 C22.511,23.058 22.791,23.260 23.144,23.431 C23.512,23.611 23.890,23.752 24.268,23.850 C24.656,23.956 25.307,24.108 26.200,24.307 C27.328,24.541 28.368,24.801 29.283,25.085 C30.216,25.370 31.017,25.723 31.672,26.133 C32.344,26.552 32.871,27.088 33.247,27.731 C33.624,28.376 33.815,29.172 33.815,30.095 C33.815,31.202 33.486,32.212 32.838,33.092 "/>
</svg>